<?xml version="1.0" encoding="UTF-8" standalone="no"?>
<!-- Created with Inkscape (http://www.inkscape.org/) -->

<svg
   width="12.984549mm"
   height="11.586309mm"
   viewBox="0 0 12.984549 11.586309"
   version="1.1"
   id="svg575"
   inkscape:version="1.2.1 (9c6d41e410, 2022-07-14)"
   sodipodi:docname="password-not-visible.svg"
   xmlns:inkscape="http://www.inkscape.org/namespaces/inkscape"
   xmlns:sodipodi="http://sodipodi.sourceforge.net/DTD/sodipodi-0.dtd"
   xmlns="http://www.w3.org/2000/svg"
   xmlns:svg="http://www.w3.org/2000/svg">
  <sodipodi:namedview
     id="namedview577"
     pagecolor="#ffffff"
     bordercolor="#999999"
     borderopacity="1"
     inkscape:showpageshadow="0"
     inkscape:pageopacity="0"
     inkscape:pagecheckerboard="0"
     inkscape:deskcolor="#d1d1d1"
     inkscape:document-units="mm"
     showgrid="false"
     inkscape:zoom="1.3430069"
     inkscape:cx="80.044266"
     inkscape:cy="106.47749"
     inkscape:window-width="1366"
     inkscape:window-height="713"
     inkscape:window-x="-8"
     inkscape:window-y="-8"
     inkscape:window-maximized="1"
     inkscape:current-layer="layer1"
     showguides="true">
    <sodipodi:guide
       position="6.4922741,5.7931593"
       orientation="1,0"
       id="guide795"
       inkscape:locked="false" />
  </sodipodi:namedview>
  <defs
     id="defs572" />
  <g
     inkscape:label="Layer 1"
     inkscape:groupmode="layer"
     id="layer1"
     transform="translate(-72.076206,-151.90103)">
    <path
       id="circle2724"
       style="stroke-width:0.264583;stroke-linecap:round;stroke-linejoin:round;stop-color:#000000"
       d="m 78.568232,155.11906 a 2.5771577,2.5771577 0 0 1 2.577104,2.5771 2.5771577,2.5771577 0 0 1 -0.26355,1.13327 l -3.75946,-3.26647 a 2.5771577,2.5771577 0 0 1 1.445906,-0.4439 z m -2.313554,1.4428 3.75791,3.2644 a 2.5771577,2.5771577 0 0 1 -1.444356,0.44701 2.5771577,2.5771577 0 0 1 -2.577104,-2.57711 2.5771577,2.5771577 0 0 1 0.26355,-1.1343 z"
       inkscape:export-filename="password not visible.png"
       inkscape:export-xdpi="150"
       inkscape:export-ydpi="150" />
    <path
       id="path2728"
       style="font-variation-settings:normal;fill:none;fill-opacity:1;stroke:#000000;stroke-width:0.79375;stroke-linecap:butt;stroke-linejoin:miter;stroke-miterlimit:4;stroke-dasharray:none;stroke-dashoffset:0;stroke-opacity:1;stop-color:#000000"
       d="m 78.568232,154.3527 c 3.287684,0 5.850806,3.34346 5.850806,3.34346 0,0 -0.917278,1.1961 -2.357996,2.15749 l -5.751587,-4.99711 c 0.691431,-0.303 1.453343,-0.50384 2.258777,-0.50384 z m -3.492293,1.18545 5.75262,4.9966 c -0.691912,0.30344 -1.454188,0.50488 -2.260327,0.50488 -3.287684,0 -5.850806,-3.34347 -5.850806,-3.34347 0,0 0.917451,-1.19654 2.358513,-2.15801 z" />
    <path
       style="color:#000000;fill:#1a1a1a;stroke:#ffffff;stroke-linecap:round"
       d="m 73.668611,152.56288 10.667968,9.26758 c 0.27574,0.23994 0.304603,0.65804 0.06445,0.93359 -0.23975,0.27448 -0.656353,0.30332 -0.93164,0.0645 l -10.669922,-9.26758 c -0.274467,-0.23976 -0.303287,-0.65637 -0.06445,-0.93164 0.114989,-0.13266 0.278001,-0.21417 0.453094,-0.22663 0.175093,-0.0125 0.347934,0.0452 0.4805,0.16018 z"
       id="path2730"
       sodipodi:nodetypes="cccccccc" />
  </g>
</svg>
